Iterative Regressionen
…
models_all <- models %>%
  unnest(tidy)

# für das R2 und andere performance measures
models %>%
  unnest(glance)

## # A tibble: 42 x 17
##     year               data      mod                 tidy       rsq
##    <dbl>             <list>   <list>               <list>     <dbl>
##  1  1972 <tibble [100 x 2]> <S3: lm> <data.frame [2 x 5]> 0.3697531
##  2  1973 <tibble [101 x 2]> <S3: lm> <data.frame [2 x 5]> 0.3830218
##  3  1974 <tibble [101 x 2]> <S3: lm> <data.frame [2 x 5]> 0.2689770
##  4  1975 <tibble [102 x 2]> <S3: lm> <data.frame [2 x 5]> 0.2847118
##  5  1976 <tibble [106 x 2]> <S3: lm> <data.frame [2 x 5]> 0.2556822
##  6  1977 <tibble [106 x 2]> <S3: lm> <data.frame [2 x 5]> 0.2852781
##  7  1978 <tibble [106 x 2]> <S3: lm> <data.frame [2 x 5]> 0.2889951
##  8  1979 <tibble [107 x 2]> <S3: lm> <data.frame [2 x 5]> 0.2281388
##  9  1980 <tibble [115 x 2]> <S3: lm> <data.frame [2 x 5]> 0.2175448
## 10  1981 <tibble [118 x 2]> <S3: lm> <data.frame [2 x 5]> 0.2075603
## # ... with 32 more rows, and 12 more variables: augment <list>,
## #   r.squared <dbl>, adj.r.squared <dbl>, sigma <dbl>, statistic <dbl>,
## #   p.value <dbl>, df <int>, logLik <dbl>, AIC <dbl>, BIC <dbl>,
## #   deviance <dbl>, df.residual <int>
…
